{
  "products": [
    {
      "id": 1,
      "name": "Laptop",
      "category": "Electronics",
      "brand": "HP",
      "price": 799.99,
      "description": "15.6\" HD Laptop, Intel Core i5, 8GB RAM, 256GB SSD, Windows 10",
      "image": "	https://p1-ofp.static.pub//fes/cms/2023/06/12/gljtmdxqjcbvjkfuaeuibjpc06cvgo264018.png",
      "stock": 10
    },
    {
      "id": 2,
      "name": "Smartphone",
      "category": "Electronics",
      "brand": "Samsung",
      "price": 699.99,
      "description": "6.5\" Android Smartphone, 128GB Storage, Triple Camera, Midnight Black",
      "image": "smartphone.jpg",
      "stock": 15
    },
    {
      "id": 3,
      "name": "Running Shoes",
      "category": "Sportswear",
      "brand": "Nike",
      "price": 99.99,
      "description": "Men's Air Zoom Pegasus 38 Running Shoes, Breathable Mesh, Cushioned",
      "image": "running_shoes.jpg",
      "stock": 20
    }
  ]
}
